{
    "/js/app.js": "/js/app.js?id=25a216c0a5eb4bcda7d3",
    "/js/vendor.js": "/js/vendor.js?id=f66fd86a26ae2678c0c0",
    "/js/admin/app.js": "/js/admin/app.js?id=d4631902c120ef0d2b2d",
    "/css/app.css": "/css/app.css?id=f3aa59e3473d5469395d",
    "/js/manifest.js": "/js/manifest.js?id=7abafed77841b44bc6bd",
    "/css/framework7-icon/framework7-icons.css": "/css/framework7-icon/framework7-icons.css?id=d62f3ef9c828d6277380",
    "/css/vue-material/all.css": "/css/vue-material/all.css?id=2301c0da3b701bde2111",
    "/js/plugins/exif.js": "/js/plugins/exif.js?id=b5d2a2507093fad88dca"
}